us\foxconsulting\ttsf\controller\StatusViewController.class
us\foxconsulting\ttsf\service\TwilioResponseBuilder.class
us\foxconsulting\ttsf\helper\SfObjectMapper.class
us\foxconsulting\ttsf\dao\NoBeanSFConnection.class
us\foxconsulting\ttsf\ServletInitializer.class
us\foxconsulting\ttsf\model\Call.class
us\foxconsulting\ttsf\model\CallAttempt.class
us\foxconsulting\ttsf\dao\SalesforceDao.class
us\foxconsulting\ttsf\media\ProcessRecording.class
us\foxconsulting\ttsf\dao\SFConnectionFactory.class
us\foxconsulting\ttsf\service\DataService.class
us\foxconsulting\ttsf\service\SalesforceService.class
us\foxconsulting\ttsf\controller\TwilioRequestController.class
